readme
…
  formula = weight ~ 1 + Diet,
  data = chickweights,
  subject = "Chick", time = "Time"
)
chickweights_spec
#> ── jlmer specification ───────────────────────────────────────── <jlmer_spec> ──
#> Formula: weight ~ 1 + Diet2 + Diet3 + Diet4
#> Predictors:
#>   Diet: Diet2, Diet3, Diet4
#> Groupings:
#>   Subject: Chick
#>   Trial:
#>   Time: Time
#> Data:
#> # A tibble: 578 × 6
#>   weight Diet2 Diet3 Diet4 Chick  Time
#>    <dbl> <dbl> <dbl> <dbl> <ord> <int>
#> 1     42     0     0     0 1         1
#> 2     51     0     0     0 1         2
#> 3     59     0     0     0 1         3
#> # ℹ 575 more rows
…
