…
Run Julia mixed model directly in `jlmer()` after explicitly
reformulating with `jlmer_model_matrix()`:

``` r
mm <- jlmer_model_matrix(fm, ChickWeight)
mm$julia_formula
#> weight ~ 1 + Diet2 + Diet3 + Diet4 + (1 | Chick)
#> <environment: 0x00000248eb8b2d48>
mm$data
#> # A tibble: 578 × 7
#>    weight Diet2 Diet3 Diet4 Chick  Time Diet 
#>     <dbl> <dbl> <dbl> <dbl> <ord> <dbl> <fct>
#>  1     42     0     0     0 1         0 1    
#>  2     51     0     0     0 1         2 1    
#>  3     59     0     0     0 1         4 1    
#>  4     64     0     0     0 1         6 1    
#>  5     76     0     0     0 1         8 1    
#>  6     93     0     0     0 1        10 1    
#>  7    106     0     0     0 1        12 1    
#>  8    125     0     0     0 1        14 1    
#>  9    149     0     0     0 1        16 1    
#> 10    171     0     0     0 1        18 1    
#> # … with 568 more rows
…
