Construct a null distribution of cluster-mass statistics — extract_null_cluster_dists • jlmerclusterperm
…
spec <- make_jlmer_spec(
  weight ~ 1 + Diet, filter(ChickWeight, Time <= 20),
  subject = "Chick", time = "Time"
)
spec
#> ── jlmer specification ───────────────────────────────────────── <jlmer_spec> ──
#> Formula: weight ~ 1 + Diet2 + Diet3 + Diet4
#> Predictors:
#>   Diet: Diet2, Diet3, Diet4
#> Groupings:
#>   Subject: Chick
#>   Trial:
#>   Time: Time
#> Data:
#> # A tibble: 533 × 6
#>   weight Diet2 Diet3 Diet4 Chick  Time
#>    <dbl> <dbl> <dbl> <dbl> <ord> <dbl>
#> 1     42     0     0     0 1         0
#> 2     51     0     0     0 1         2
#> 3     59     0     0     0 1         4
#> # ℹ 530 more rows
…
# Collect as dataframe with `tidy()`
# - Each simulation contributes one (largest) cluster-mass statistic to the null
# - When no clusters are found, the `sum_statistic` value is zero
null_cluster_dists_df <- tidy(null_cluster_dists)
null_cluster_dists_df
#> # A tibble: 300 × 6
#>    predictor start   end length sum_statistic sim  
#>    <chr>     <dbl> <dbl>  <dbl>         <dbl> <fct>
#>  1 Diet2        10    20      6          14.8 001  
#>  2 Diet2        NA    NA     NA           0   002  
#>  3 Diet2        NA    NA     NA           0   003  
#>  4 Diet2        NA    NA     NA           0   004  
#>  5 Diet2        NA    NA     NA           0   005  
#>  6 Diet2        NA    NA     NA           0   006  
#>  7 Diet2        NA    NA     NA           0   007  
#>  8 Diet2        NA    NA     NA           0   008  
#>  9 Diet2        NA    NA     NA           0   009  
#> 10 Diet2        NA    NA     NA           0   010  
#> # ℹ 290 more rows
…
