Create a specifications object for fitting regression models in Julia — make_jlmer_spec • jlmerclusterperm
…
    Value

    An object of class jlmer_spec.

    Examples

# Bare specification object (minimal spec for fitting a global model)
spec <- make_jlmer_spec(weight ~ 1 + Diet, ChickWeight)
spec
#> ── jlmer specification ───────────────────────────────────────── <jlmer_spec> ──
#> Formula: weight ~ 1 + Diet2 + Diet3 + Diet4
#> Predictors:
#>   Diet: Diet2, Diet3, Diet4
#> Data:
#> # A tibble: 578 × 4
#>   weight Diet2 Diet3 Diet4
#>    <dbl> <dbl> <dbl> <dbl>
#> 1     42     0     0     0
#> 2     51     0     0     0
#> 3     59     0     0     0
#> # ℹ 575 more rows
…
spec_correct <- make_jlmer_spec(
  weight ~ 1 + Diet, subset(ChickWeight, Time <= 20),
  subject = "Chick", time = "Time"
)
spec_correct
#> ── jlmer specification ───────────────────────────────────────── <jlmer_spec> ──
#> Formula: weight ~ 1 + Diet2 + Diet3 + Diet4
#> Predictors:
#>   Diet: Diet2, Diet3, Diet4
#> Groupings:
#>   Subject: Chick
#>   Trial:
#>   Time: Time
#> Data:
#> # A tibble: 533 × 6
#>   weight Diet2 Diet3 Diet4 Chick  Time
#>    <dbl> <dbl> <dbl> <dbl> <ord> <dbl>
#> 1     42     0     0     0 1         0
#> 2     51     0     0     0 1         2
#> 3     59     0     0     0 1         4
#> # ℹ 530 more rows
…
