Simulate cluster-mass statistics via bootstrapped permutations — permute_timewise_statistics • jlmerclusterperm
…
spec <- make_jlmer_spec(
  weight ~ 1 + Diet, filter(ChickWeight, Time <= 20),
  subject = "Chick", time = "Time"
)
spec
#> ── jlmer specification ───────────────────────────────────────── <jlmer_spec> ──
#> Formula: weight ~ 1 + Diet2 + Diet3 + Diet4
#> Predictors:
#>   Diet: Diet2, Diet3, Diet4
#> Groupings:
#>   Subject: Chick
#>   Trial:
#>   Time: Time
#> Data:
#> # A tibble: 533 × 6
#>   weight Diet2 Diet3 Diet4 Chick  Time
#>    <dbl> <dbl> <dbl> <dbl> <ord> <dbl>
#> 1     42     0     0     0 1         0
#> 2     51     0     0     0 1         2
#> 3     59     0     0     0 1         4
#> # ℹ 530 more rows
…
# Collect as dataframe with `tidy()`
permuted_timewise_stats_df <- tidy(null_statistics)
permuted_timewise_stats_df
#> # A tibble: 99 × 4
#>    predictor  time statistic sim  
#>    <chr>     <dbl>     <dbl> <fct>
#>  1 Diet2         0 -8.98e- 1 1    
#>  2 Diet2         0  1.40e+ 0 2    
#>  3 Diet2         0 -1.44e+ 0 3    
#>  4 Diet3         0  2.34e-15 1    
#>  5 Diet3         0  6.98e- 1 2    
#>  6 Diet3         0  7.21e- 1 3    
#>  7 Diet4         0  4.49e- 1 1    
#>  8 Diet4         0  2.09e+ 0 2    
#>  9 Diet4         0 -2.16e+ 0 3    
#> 10 Diet2         2  4.12e- 1 1    
#> # ℹ 89 more rows
…
