jlmerclusterperm • jlmerclusterperm
…
  formula = weight ~ 1 + Diet,
  data = chickweights,
  subject = "Chick", time = "Time"
)
chickweights_spec
#> ── jlmer specification ───────────────────────────────────────── <jlmer_spec> ──
#> Formula: weight ~ 1 + Diet2 + Diet3 + Diet4
#> Predictors:
#>   Diet: Diet2, Diet3, Diet4
#> Groupings:
#>   Subject: Chick
#>   Trial:
#>   Time: Time
#> Data:
#> # A tibble: 578 × 6
#>   weight Diet2 Diet3 Diet4 Chick  Time
#>    <dbl> <dbl> <dbl> <dbl> <ord> <int>
#> 1     42     0     0     0 1         1
#> 2     51     0     0     0 1         2
#> 3     59     0     0     0 1         3
#> # ℹ 575 more rows
…
Piecemeal approach to CPA

Computing time-wise statistics of the observed data:

empirical_statistics <- compute_timewise_statistics(chickweights_spec)
tidy(empirical_statistics)
#> # A tibble: 36 × 3
#>    predictor  time statistic
#>    <chr>     <dbl>     <dbl>
#>  1 Diet2         1    -1.60 
#>  2 Diet3         1    -1.37 
#>  3 Diet4         1    -0.916
#>  4 Diet2         2     1.67 
#>  5 Diet3         2     2.45 
#>  6 Diet4         2     3.53 
#>  7 Diet2         3     2.60 
#>  8 Diet3         3     4.48 
#>  9 Diet4         3     6.27 
#> 10 Diet2         4     3.52 
#> # ℹ 26 more rows
…
