de Carvalho et al. 2021 • jlmerclusterperm
…
# Unaggregated trial-level data of 1s and 0s
E2_data
#> # A tibble: 69,123 × 5
#>    Subject Trial Condition        Time Target
#>    <chr>   <dbl> <fct>           <dbl>  <int>
#>  1 200.asc     0 RightDislocated     0      0
#>  2 200.asc     0 RightDislocated   400      0
#>  3 200.asc     0 RightDislocated   450      1
#>  4 200.asc     0 RightDislocated   500      1
#>  5 200.asc     0 RightDislocated   550      1
#>  6 200.asc     0 RightDislocated   600      1
#>  7 200.asc     0 RightDislocated   650      1
#>  8 200.asc     0 RightDislocated   700      1
#>  9 200.asc     0 RightDislocated   750      1
#> 10 200.asc     0 RightDislocated   800      1
#> # ℹ 69,113 more rows

# Aggregated subject-mean proportions data used in original study
E2_data_agg
#> # A tibble: 11,540 × 4
#>    Subject Condition        Time  Prop
#>    <chr>   <fct>           <dbl> <dbl>
#>  1 200.asc RightDislocated     0 0.5  
#>  2 200.asc RightDislocated    50 1    
#>  3 200.asc RightDislocated   100 1    
#>  4 200.asc RightDislocated   150 1    
#>  5 200.asc RightDislocated   200 1    
#>  6 200.asc RightDislocated   250 0.5  
#>  7 200.asc RightDislocated   300 0.5  
#>  8 200.asc RightDislocated   350 0.4  
#>  9 200.asc RightDislocated   400 0.286
#> 10 200.asc RightDislocated   450 0.429
#> # ℹ 11,530 more rows
…
Subject: Unique identifier for subjects

Condition: A between-participant factor variable with
three levels ("Intransitive",
"RightDislocated", "Transitive")

Time: A continuous measure of time from 0-8000ms in
50ms intervals

Prop: Proportion of looks to the target (averaged
across trials within each condition, by subject)

E2_data_agg
#> # A tibble: 11,540 × 4
#>    Subject Condition        Time  Prop
#>    <chr>   <fct>           <dbl> <dbl>
#>  1 200.asc RightDislocated     0 0.5  
#>  2 200.asc RightDislocated    50 1    
#>  3 200.asc RightDislocated   100 1    
#>  4 200.asc RightDislocated   150 1    
#>  5 200.asc RightDislocated   200 1    
#>  6 200.asc RightDislocated   250 0.5  
#>  7 200.asc RightDislocated   300 0.5  
#>  8 200.asc RightDislocated   350 0.4  
#>  9 200.asc RightDislocated   400 0.286
#> 10 200.asc RightDislocated   450 0.429
#> # ℹ 11,530 more rows
…
    filter(Condition %in% c("Transitive", "RightDislocated")) %>%
    mutate(Condition = droplevels(Condition)), # or forcats::fct_drop()
  subject = "Subject", time = "Time"
)
spec_7B
#> ── jlmer specification ───────────────────────────────────────── <jlmer_spec> ──
#> Formula: Prop ~ 1 + ConditionTransitive
#> Predictors:
#>   Condition: ConditionTransitive
#> Groupings:
#>   Subject: Subject
#>   Trial:
#>   Time: Time
#> Data:
#> # A tibble: 7,688 × 4
#>    Prop ConditionTransitive Subject  Time
#>   <dbl>               <dbl> <chr>   <dbl>
#> 1   0.5                   0 200.asc     0
#> 2   1                     0 200.asc    50
#> 3   1                     0 200.asc   100
#> # ℹ 7,685 more rows
…
  formula = Prop ~ ConditionHelm,
  data = E2_data_agg,
  subject = "Subject", time = "Time"
)
spec_helm
#> ── jlmer specification ───────────────────────────────────────── <jlmer_spec> ──
#> Formula: Prop ~ 1 + ConditionHelmRvsI + ConditionHelmTvsRI
#> Predictors:
#>   ConditionHelm: ConditionHelmRvsI, ConditionHelmTvsRI
#> Groupings:
#>   Subject: Subject
#>   Trial:
#>   Time: Time
#> Data:
#> # A tibble: 11,540 × 5
#>    Prop ConditionHelmRvsI ConditionHelmTvsRI Subject  Time
#>   <dbl>             <dbl>              <dbl> <chr>   <dbl>
#> 1   0.5               0.5             -0.333 200.asc     0
#> 2   1                 0.5             -0.333 200.asc    50
#> 3   1                 0.5             -0.333 200.asc   100
#> # ℹ 11,537 more rows
…
Model complexity

We wrap up this case study by considering a more complex CPA which
uses logistic mixed effects models over trial-level
data of fixations to the target (1s and 0s).

Logistic mixed model

The un-aggregated trial-level data that we will use in this section
is E2_data, which comes from the initial data preparation
code chunk:

E2_data
#> # A tibble: 69,123 × 5
#>    Subject Trial Condition        Time Target
#>    <chr>   <dbl> <fct>           <dbl>  <int>
#>  1 200.asc     0 RightDislocated     0      0
#>  2 200.asc     0 RightDislocated   400      0
#>  3 200.asc     0 RightDislocated   450      1
#>  4 200.asc     0 RightDislocated   500      1
#>  5 200.asc     0 RightDislocated   550      1
#>  6 200.asc     0 RightDislocated   600      1
#>  7 200.asc     0 RightDislocated   650      1
#>  8 200.asc     0 RightDislocated   700      1
#>  9 200.asc     0 RightDislocated   750      1
#> 10 200.asc     0 RightDislocated   800      1
#> # ℹ 69,113 more rows
…
  formula = Target ~ ConditionHelm + (1 | Subject),
  data = E2_data,
  subject = "Subject", trial = "Trial", time = "Time"
)
spec_helm_complex
#> ── jlmer specification ───────────────────────────────────────── <jlmer_spec> ──
#> Formula: Target ~ 1 + ConditionHelmRvsI + ConditionHelmTvsRI + (1 | Subject)
#> Predictors:
#>   ConditionHelm: ConditionHelmRvsI, ConditionHelmTvsRI
#> Groupings:
#>   Subject: Subject
#>   Trial: Trial
#>   Time: Time
#> Data:
#> # A tibble: 69,123 × 6
#>   Target ConditionHelmRvsI ConditionHelmTvsRI Subject Trial  Time
#>    <int>             <dbl>              <dbl> <chr>   <dbl> <dbl>
#> 1      0               0.5             -0.333 200.asc     0     0
#> 2      0               0.5             -0.333 200.asc     0   400
#> 3      1               0.5             -0.333 200.asc     0   450
#> # ℹ 69,120 more rows
…
