Comparison to eyetrackingR • jlmerclusterperm
…
# subset to response window post word-onset
response_window <- subset_by_window(data,
  window_start_time = 15500,
  window_end_time = 21000,
  rezero = FALSE
)

# analyze amount of trackloss by subjects and trials
(trackloss <- trackloss_analysis(data = response_window))
#> # A tibble: 155 × 6
#>    ParticipantName Trial          Samples TracklossSamples TracklossForTrial
#>    <fct>           <fct>            <dbl>            <dbl>             <dbl>
#>  1 ANCAT139        FamiliarBottle     330              161            0.488 
#>  2 ANCAT18         FamiliarBird       330               74            0.224 
#>  3 ANCAT18         FamiliarBottle     330               43            0.130 
#>  4 ANCAT18         FamiliarCow        330              159            0.482 
#>  5 ANCAT18         FamiliarDog        330               95            0.288 
#>  6 ANCAT18         FamiliarHorse      330              165            0.5   
#>  7 ANCAT18         FamiliarSpoon      330               95            0.288 
#>  8 ANCAT22         FamiliarBird       330               14            0.0424
#>  9 ANCAT22         FamiliarBottle     330                8            0.0242
#> 10 ANCAT22         FamiliarDog        330               55            0.167 
#> # ℹ 145 more rows
#> # ℹ 1 more variable: TracklossForParticipant <dbl>
…
The output prepares the data for CPA by subsetting it and applying
the contrast coding schemes, among other things:

spec
#> ── jlmer specification ───────────────────────────────────────── <jlmer_spec> ──
#> Formula: Prop ~ 1 + TargetInanimate
#> Predictors:
#>   Target: TargetInanimate
#> Groupings:
#>   Subject: ParticipantName
#>   Trial: Target
#>   Time: TimeBin
#> Data:
#> # A tibble: 2,933 × 5
#>    Prop TargetInanimate ParticipantName Target  TimeBin
#>   <dbl>           <dbl> <fct>           <fct>     <dbl>
#> 1     0               0 ANCAT18         Animate     161
#> 2     0               0 ANCAT18         Animate     162
#> 3     1               0 ANCAT18         Animate     163
#> # ℹ 2,930 more rows
…
The different pieces of information are available for further
inspection using tidy(), which returns the dataframe
underlying the summary:

null_distribution <- tidy(cpa$null_cluster_dists)
null_distribution
#> # A tibble: 150 × 6
#>    predictor       start   end length sum_statistic sim  
#>    <chr>           <dbl> <dbl>  <dbl>         <dbl> <fct>
#>  1 TargetInanimate    NA    NA     NA          0    001  
#>  2 TargetInanimate   208   209      2          5.09 002  
#>  3 TargetInanimate   197   200      4         -8.94 003  
#>  4 TargetInanimate   205   206      2         -4.32 004  
#>  5 TargetInanimate    NA    NA     NA          0    005  
#>  6 TargetInanimate   193   196      4        -10.8  006  
#>  7 TargetInanimate   187   193      7         19.3  007  
#>  8 TargetInanimate   177   180      4          9.34 008  
#>  9 TargetInanimate   159   161      3         -7.57 009  
#> 10 TargetInanimate    NA    NA     NA          0    010  
#> # ℹ 140 more rows
…
