Garrison et al. 2020 • jlmerclusterperm
…
subject_id: Unique identifier for subjects

age: A between-participant factor variable
("Younger", "Older")

time: A continuous measure of time from 0-3975ms at
25ms intervals

prop: A by-subject proportion of looks to the target
object

ts_data_agg
#> # A tibble: 2,560 × 4
#>    subject_id age    time  prop
#>         <int> <fct> <dbl> <dbl>
#>  1       1413 Older     0 0.7  
#>  2       1413 Older    25 0.733
#>  3       1413 Older    50 0.7  
#>  4       1413 Older    75 0.7  
#>  5       1413 Older   100 0.677
#>  6       1413 Older   125 0.677
#>  7       1413 Older   150 0.645
#>  8       1413 Older   175 0.645
#>  9       1413 Older   200 0.581
#> 10       1413 Older   225 0.548
#> # ℹ 2,550 more rows
…
formula: An R regression model formula

data: A data frame

For example, to model prop using age as a
predictor for the ts_data_agg data:

simple_spec <- make_jlmer_spec(formula = prop ~ 1 + age, data = ts_data_agg)
simple_spec
#> ── jlmer specification ───────────────────────────────────────── <jlmer_spec> ──
#> Formula: prop ~ 1 + ageOlder
#> Predictors:
#>   age: ageOlder
#> Data:
#> # A tibble: 2,560 × 2
#>    prop ageOlder
#>   <dbl>    <dbl>
#> 1 0.7          1
#> 2 0.733        1
#> 3 0.7          1
#> # ℹ 2,557 more rows
…
  formula = prop ~ 1 + age, data = ts_data_agg,
  subject = "subject_id", time = "time",
  trial = NULL # This is the default value
)
ts_data_agg_spec
#> ── jlmer specification ───────────────────────────────────────── <jlmer_spec> ──
#> Formula: prop ~ 1 + ageOlder
#> Predictors:
#>   age: ageOlder
#> Groupings:
#>   Subject: subject_id
#>   Trial:
#>   Time: time
#> Data:
#> # A tibble: 2,560 × 4
#>    prop ageOlder subject_id  time
#>   <dbl>    <dbl>      <int> <dbl>
#> 1 0.7          1       1413     0
#> 2 0.733        1       1413    25
#> 3 0.7          1       1413    50
#> # ℹ 2,557 more rows
…
null_cluster_dists <- extract_null_cluster_dists(null_statistics, threshold = 2)
null_cluster_dists
#> ── Null cluster-mass distribution (t > 2) ────────────── <null_cluster_dists> ──
#> ageOlder (n = 100)
#>   Mean (SD): -6.150 (40.29)
#>   Coverage intervals: 95% [-114.564, 74.425]
#> ────────────────────────────────────────────────────────────────────────────────

When printed, the returned <null_cluster_dists>
object shows summary statistics. You can use tidy() to
collect the samples from the null into a data frame:

null_cluster_dists_df <- tidy(null_cluster_dists)
null_cluster_dists_df
#> # A tibble: 100 × 6
#>    predictor start   end length sum_statistic sim  
#>    <chr>     <dbl> <dbl>  <dbl>         <dbl> <fct>
#>  1 ageOlder     NA    NA     NA          0    001  
#>  2 ageOlder     NA    NA     NA          0    002  
#>  3 ageOlder   2175  2225      3         -6.37 003  
#>  4 ageOlder     NA    NA     NA          0    004  
#>  5 ageOlder   3425  3475      3         -6.67 005  
#>  6 ageOlder     NA    NA     NA          0    006  
#>  7 ageOlder     NA    NA     NA          0    007  
#>  8 ageOlder     NA    NA     NA          0    008  
#>  9 ageOlder     NA    NA     NA          0    009  
#> 10 ageOlder   1525  2475     39       -114.   010  
#> # ℹ 90 more rows
…
nrow(ts_data_agg)
#> [1] 2560
ts_data_agg %>%
  distinct(subject_id, time) %>%
  nrow()
#> [1] 2560

It is possible to also fit a logistic regression
model over the trial-level measure of “hits” (1s and 0s) on the
target area of interest. This un-aggregated, trial-level data comes from
the data preparation code at the top of this vignette.

ts_data_trials
#> # A tibble: 62,466 × 5
#>    subject_id age   trial_id  time target
#>         <int> <fct>    <int> <dbl>  <int>
#>  1       1413 Older     2659     0      1
#>  2       1413 Older     2659    25      1
#>  3       1413 Older     2659    50      1
#>  4       1413 Older     2659    75      1
#>  5       1413 Older     2659   100      1
#>  6       1413 Older     2659   125      1
#>  7       1413 Older     2659   150      1
#>  8       1413 Older     2659   175      1
#>  9       1413 Older     2659   200      1
#> 10       1413 Older     2659   225      1
#> # ℹ 62,456 more rows
…
ts_data_trial_spec <- make_jlmer_spec(
  formula = target ~ 1 + age, data = ts_data_trials,
  subject = "subject_id", trial = "trial_id", time = "time"
)
ts_data_trial_spec
#> ── jlmer specification ───────────────────────────────────────── <jlmer_spec> ──
#> Formula: target ~ 1 + ageOlder
#> Predictors:
#>   age: ageOlder
#> Groupings:
#>   Subject: subject_id
#>   Trial: trial_id
#>   Time: time
#> Data:
#> # A tibble: 62,466 × 5
#>   target ageOlder subject_id trial_id  time
#>    <int>    <dbl>      <int>    <int> <dbl>
#> 1      1        1       1413     2659     0
#> 2      1        1       1413     2659    25
#> 3      1        1       1413     2659    50
#> # ℹ 62,463 more rows
…
