Geller et al. 2020 • jlmerclusterperm
…
We will follow Jason Geller’s
tutorial which used the clusterperm package
to conduct a cluster-based permutation analysis (CPA) of differences in
pupil size between the print and cursive conditions.

The data from the package (cursive_agg_data) looks
slightly different from that used in the tutorial, so to ensure full
reproducibility we use the exact
data that the tutorial used:

library(dplyr)
cursive_agg_data <- as_tibble(read.csv("https://raw.githubusercontent.com/jgeller112/drjasongeller/main/content/blog/2020-07-10-CBPT/blog_data.csv"))
cursive_agg_data
#> # A tibble: 2,184 × 5
#>        X subject script  timebins aggbaseline
#>    <int> <chr>   <chr>      <int>       <dbl>
#>  1     1 10b.edf cursive        0      36.9  
#>  2     2 10b.edf cursive      100      27.5  
#>  3     3 10b.edf cursive      200      19.6  
#>  4     4 10b.edf cursive      300      12.6  
#>  5     5 10b.edf cursive      400       5.60 
#>  6     6 10b.edf cursive      500       0.968
#>  7     7 10b.edf cursive      600      -5.98 
#>  8     8 10b.edf cursive      700      -5.96 
#>  9     9 10b.edf cursive      800       3.01 
#> 10    10 10b.edf cursive      900      12.9  
#> # ℹ 2,174 more rows
…
We start with a simple specification object to model
aggbaseline using script as a predictor for
the script_fig data:

simple_spec <- make_jlmer_spec(
  formula = aggbaseline ~ 1 + script,
  data = cursive_agg_data
)
simple_spec
#> ── jlmer specification ───────────────────────────────────────── <jlmer_spec> ──
#> Formula: aggbaseline ~ 1 + scriptprint
#> Predictors:
#>   script: scriptprint
#> Data:
#> # A tibble: 2,184 × 2
#>   aggbaseline scriptprint
#>         <dbl>       <dbl>
#> 1        36.9           0
#> 2        27.5           0
#> 3        19.6           0
#> # ℹ 2,181 more rows
…
The cursive_agg_data data collapses across trials within
subject, so there is no column for trial. However, we cannot leave the
trial argument unspecified because observations are not
uniquely identified by subject and time alone.
There are instead 2 rows per subject-time combination, one for each
script condition:

cursive_agg_data %>%
  count(subject, timebins)
#> # A tibble: 1,092 × 3
#>    subject timebins     n
#>    <chr>      <int> <int>
#>  1 10b.edf        0     2
#>  2 10b.edf      100     2
#>  3 10b.edf      200     2
#>  4 10b.edf      300     2
#>  5 10b.edf      400     2
#>  6 10b.edf      500     2
#>  7 10b.edf      600     2
#>  8 10b.edf      700     2
#>  9 10b.edf      800     2
#> 10 10b.edf      900     2
#> # ℹ 1,082 more rows

Therefore we need a “dummy” column for trial to distinctly mark
“cursive” vs. “script” trials. We save this new data as
cursive_agg:

cursive_agg <- cursive_agg_data %>%
  mutate(trial_type = paste0(script, "_agg"))
cursive_agg
#> # A tibble: 2,184 × 6
#>        X subject script  timebins aggbaseline trial_type 
#>    <int> <chr>   <chr>      <int>       <dbl> <chr>      
#>  1     1 10b.edf cursive        0      36.9   cursive_agg
#>  2     2 10b.edf cursive      100      27.5   cursive_agg
#>  3     3 10b.edf cursive      200      19.6   cursive_agg
#>  4     4 10b.edf cursive      300      12.6   cursive_agg
#>  5     5 10b.edf cursive      400       5.60  cursive_agg
#>  6     6 10b.edf cursive      500       0.968 cursive_agg
#>  7     7 10b.edf cursive      600      -5.98  cursive_agg
#>  8     8 10b.edf cursive      700      -5.96  cursive_agg
#>  9     9 10b.edf cursive      800       3.01  cursive_agg
#> 10    10 10b.edf cursive      900      12.9   cursive_agg
#> # ℹ 2,174 more rows
…
  formula = aggbaseline ~ 1 + script,
  data = cursive_agg,
  subject = "subject", trial = "trial_type", time = "timebins"
)
cursive_agg_spec
#> ── jlmer specification ───────────────────────────────────────── <jlmer_spec> ──
#> Formula: aggbaseline ~ 1 + scriptprint
#> Predictors:
#>   script: scriptprint
#> Groupings:
#>   Subject: subject
#>   Trial: trial_type
#>   Time: timebins
#> Data:
#> # A tibble: 2,184 × 5
#>   aggbaseline scriptprint subject trial_type  timebins
#>         <dbl>       <dbl> <chr>   <chr>          <int>
#> 1        36.9           0 10b.edf cursive_agg        0
#> 2        27.5           0 10b.edf cursive_agg      100
#> 3        19.6           0 10b.edf cursive_agg      200
#> # ℹ 2,181 more rows
…
