Tidying output • jlmerclusterperm
…
jlmer_spec <- make_jlmer_spec(
  formula = weight ~ diet + (1 | Chick), data = chickweights,
  subject = "Chick", time = "Time"
)
jlmer_spec
#> ── jlmer specification ───────────────────────────────────────── <jlmer_spec> ──
#> Formula: weight ~ 1 + dietB + (1 | Chick)
#> Predictors:
#>   diet: dietB
#> Groupings:
#>   Subject: Chick
#>   Trial:
#>   Time: Time
#> Data:
#> # A tibble: 533 × 4
#>   weight dietB Chick  Time
#>    <dbl> <dbl> <chr> <dbl>
#> 1     42     0 1         0
#> 2     51     0 1         2
#> 3     59     0 1         4
#> # ℹ 530 more rows
…
In the case of compute_timewise_statistics(), the output
is a 3D array of simulation, time, and predictor. Again, each dimension
becomes a column in the tidy() data:

null_statistics <- permute_timewise_statistics(jlmer_spec, nsim = 1000)
class(null_statistics)
#> [1] "timewise_statistics"
dim(null_statistics) # simulation x time x predictor
#> [1] 1000   11    1
tidy(null_statistics)
#> # A tibble: 11,000 × 4
#>    predictor  time statistic sim  
#>    <chr>     <dbl>     <dbl> <fct>
#>  1 dietB         0   -0.309  0001 
#>  2 dietB         0    2.10   0002 
#>  3 dietB         0   -2.83   0003 
#>  4 dietB         0   -0.568  0004 
#>  5 dietB         0    2.10   0005 
#>  6 dietB         0   -1.09   0006 
#>  7 dietB         0   -0.830  0007 
#>  8 dietB         0   -0.0515 0008 
#>  9 dietB         0   -0.0515 0009 
#> 10 dietB         0    0.206  0010 
#> # ℹ 10,990 more rows
…
The null distribution is constructed from the largest cluster-mass
statistic observed in each of the bootstrapped permutations of the
original data. In other words, each simulation contributes one sample to
the null.

In the tidy() representation, each simulation of a
predictor represents a row. The sum_statistic column
represents the size of the largest cluster from each
simulation. When no clusters are found, the column is zero and values
for start, end, and length are
NA.

tidy(null_cluster_dists)
#> # A tibble: 1,000 × 6
#>    predictor start   end length sum_statistic sim  
#>    <chr>     <dbl> <dbl>  <dbl>         <dbl> <fct>
#>  1 dietB         8    20      7         11.1  0001 
#>  2 dietB         6    10      3          3.75 0002 
#>  3 dietB        18    20      2          2.07 0003 
#>  4 dietB         2    10      5          6.00 0004 
#>  5 dietB         4    10      4          5.91 0005 
#>  6 dietB        NA    NA     NA          0    0006 
#>  7 dietB         8    20      7         12.2  0007 
#>  8 dietB         2     8      4          5.29 0008 
#>  9 dietB        NA    NA     NA          0    0009 
#> 10 dietB        NA    NA     NA          0    0010 
#> # ℹ 990 more rows
…
When available, p-values are returned as a column in the
tidy() data:

tidy(tested_clusters)
#> # A tibble: 1 × 7
#>   predictor id    start   end length sum_statistic pvalue
#>   <chr>     <fct> <dbl> <dbl>  <dbl>         <dbl>  <dbl>
#> 1 dietB     1         2    14      7          18.2  0.027

Note that the p-value for this cluster is 0.027 because there are 27
samples from the null that are as or more extreme than the observed:

tidy(null_cluster_dists) %>%
  filter(abs(sum_statistic) >= abs(tidy(tested_clusters)$sum_statistic))
#> # A tibble: 27 × 6
#>    predictor start   end length sum_statistic sim  
#>    <chr>     <dbl> <dbl>  <dbl>         <dbl> <fct>
#>  1 dietB         0    20     11         -18.7 0072 
#>  2 dietB         0    20     11         -19.4 0114 
#>  3 dietB         6    20      8          19.0 0118 
#>  4 dietB         0    20     11         -23.6 0137 
#>  5 dietB         4    20      9         -21.7 0142 
#>  6 dietB         2    20     10          24.7 0268 
#>  7 dietB         4    20      9          22.7 0289 
#>  8 dietB         2    20     10          29.4 0319 
#>  9 dietB         2    20     10          26.4 0325 
#> 10 dietB         4    20      9          26.5 0384 
#> # ℹ 17 more rows
…
You can tidy() the elements of this list with
lapply() or purrr::map():

lapply(full_test, tidy)
#> $null_cluster_dists
#> # A tibble: 1,000 × 6
#>    predictor start   end length sum_statistic sim  
#>    <chr>     <dbl> <dbl>  <dbl>         <dbl> <fct>
#>  1 dietB        14    20      4         -5.26 0001 
#>  2 dietB        14    20      4          9.22 0002 
#>  3 dietB         6    20      8         11.8  0003 
#>  4 dietB        NA    NA     NA          0    0004 
#>  5 dietB        NA    NA     NA          0    0005 
#>  6 dietB        16    20      3         -3.69 0006 
#>  7 dietB        14    20      4          6.23 0007 
#>  8 dietB        NA    NA     NA          0    0008 
#>  9 dietB        12    20      5          5.38 0009 
#> 10 dietB        NA    NA     NA          0    0010 
#> # ℹ 990 more rows
…
