Permute data while respecting grouping structure(s) of observations — permute_by_predictor • jlmerclusterperm
…
  formula = weight ~ 1 + DietInt,
  data = chickweights_df,
  subject = "Chick", time = "Time"
)
chickweights_spec1
#> ── jlmer specification ───────────────────────────────────────── <jlmer_spec> ──
#> Formula: weight ~ 1 + DietInt
#> Predictors:
#>   DietInt: DietInt
#> Groupings:
#>   Subject: Chick
#>   Trial:
#>   Time: Time
#> Data:
#> # A tibble: 533 × 4
#>   weight DietInt Chick  Time
#>    <dbl>   <dbl> <ord> <dbl>
#> 1     42       1 1         0
#> 2     51       1 1         2
#> 3     59       1 1         4
#> # ℹ 530 more rows
…
  formula = weight ~ 1 + Diet,
  data = chickweights_df,
  subject = "Chick", time = "Time"
)
chickweights_spec2
#> ── jlmer specification ───────────────────────────────────────── <jlmer_spec> ──
#> Formula: weight ~ 1 + Diet2 + Diet3 + Diet4
#> Predictors:
#>   Diet: Diet2, Diet3, Diet4
#> Groupings:
#>   Subject: Chick
#>   Trial:
#>   Time: Time
#> Data:
#> # A tibble: 533 × 6
#>   weight Diet2 Diet3 Diet4 Chick  Time
#>    <dbl> <dbl> <dbl> <dbl> <ord> <dbl>
#> 1     42     0     0     0 1         0
#> 2     51     0     0     0 1         2
#> 3     59     0     0     0 1         4
#> # ℹ 530 more rows
…
