Ito et al. 2018 • jlmerclusterperm
…
fix_50bin <- fix.50bin %>% 
  as_tibble() %>% 
  mutate(
    elogFix = log((Count+.5)/
              (allSample-BlinkCount-OffScreenCount-Count+.5))
  ) %>% 
  select(elogFix, Condition, Lang, Time, Subject, Item) %>%
  filter(Lang %in% c("L1", "L2"), Condition %in% c("Targ", "Unr")) %>%
  droplevels()
fix_50bin
#> # A tibble: 14,360 × 6
#>    elogFix Condition Lang   Time Subject Item 
#>      <dbl> <fct>     <fct> <dbl> <fct>   <fct>
#>  1   -3.93 Targ      L2    -1000 j1      5    
#>  2   -3.93 Targ      L2     -950 j1      5    
#>  3   -3.93 Targ      L2     -900 j1      5    
#>  4   -3.93 Targ      L2     -850 j1      5    
#>  5   -3.93 Targ      L2     -800 j1      5    
#>  6   -3.93 Targ      L2     -750 j1      5    
#>  7   -3.93 Targ      L2     -700 j1      5    
#>  8   -3.93 Targ      L2     -650 j1      5    
#>  9   -3.93 Targ      L2     -600 j1      5    
#> 10   -3.93 Targ      L2     -550 j1      5    
#> # ℹ 14,350 more rows
…
