Reproducibility • jlmerclusterperm
…
jlmer_spec <- make_jlmer_spec(
  formula = weight ~ diet + (1 | Chick), data = chickweights,
  subject = "Chick", time = "Time"
)
jlmer_spec
#> ── jlmer specification ───────────────────────────────────────── <jlmer_spec> ──
#> Formula: weight ~ 1 + dietB + (1 | Chick)
#> Predictors:
#>   diet: dietB
#> Groupings:
#>   Subject: Chick
#>   Trial:
#>   Time: Time
#> Data:
#> # A tibble: 533 × 4
#>   weight dietB Chick  Time
#>    <dbl> <dbl> <chr> <dbl>
#> 1     42     0 1         0
#> 2     51     0 1         2
#> 3     59     0 1         4
#> # ℹ 530 more rows
…
